<?xml version="1.0" encoding="UTF-8"?>
<session version="1.0">
<refactoring comment="Rename resource &apos;naboo/src/main/resources/static/style.cee&apos; to &apos;style.css&apos;" description="Rename resource &apos;style.cee&apos;" flags="7" id="org.eclipse.ltk.core.refactoring.rename.resource" input="src/main/resources/static/style.cee" name="style.css" stamp="1519074027811" updateReferences="true"/>
</session>